146.70.26.10:1080:5h764z2n6654dkh:8zaJ2CbebGAHGaj
146.70.26.14:1080:5h764z2n6654dkh:8zaJ2CbebGAHGaj
146.70.26.18:1080:5h764z2n6654dkh:8zaJ2CbebGAHGaj
146.70.26.2:1080:5h764z2n6654dkh:8zaJ2CbebGAHGaj
146.70.26.22:1080:5h764z2n6654dkh:8zaJ2CbebGAHGaj
146.70.26.26:1080:5h764z2n6654dkh:8zaJ2CbebGAHGaj
146.70.26.30:1080:5h764z2n6654dkh:8zaJ2CbebGAHGaj
146.70.26.6:1080:5h764z2n6654dkh:8zaJ2CbebGAHGaj
185.156.172.154:1080:5h764z2n6654dkh:8zaJ2CbebGAHGaj
185.156.172.198:1080:5h764z2n6654dkh:8zaJ2CbebGAHGaj
185.212.171.114:1080:5h764z2n6654dkh:8zaJ2CbebGAHGaj
185.212.171.118:1080:5h764z2n6654dkh:8zaJ2CbebGAHGaj
194.59.250.194:1080:5h764z2n6654dkh:8zaJ2CbebGAHGaj
194.59.250.202:1080:5h764z2n6654dkh:8zaJ2CbebGAHGaj
194.59.250.210:1080:5h764z2n6654dkh:8zaJ2CbebGAHGaj
194.59.250.218:1080:5h764z2n6654dkh:8zaJ2CbebGAHGaj
194.59.250.226:1080:5h764z2n6654dkh:8zaJ2CbebGAHGaj
194.59.250.234:1080:5h764z2n6654dkh:8zaJ2CbebGAHGaj
194.59.250.242:1080:5h764z2n6654dkh:8zaJ2CbebGAHGaj
194.59.250.250:1080:5h764z2n6654dkh:8zaJ2CbebGAHGaj
2.58.44.226:1080:5h764z2n6654dkh:8zaJ2CbebGAHGaj
37.120.141.114:1080:5h764z2n6654dkh:8zaJ2CbebGAHGaj
37.120.141.122:1080:5h764z2n6654dkh:8zaJ2CbebGAHGaj
37.120.153.234:1080:5h764z2n6654dkh:8zaJ2CbebGAHGaj
37.120.153.242:1080:5h764z2n6654dkh:8zaJ2CbebGAHGaj
37.120.213.190:1080:5h764z2n6654dkh:8zaJ2CbebGAHGaj
37.120.213.34:1080:5h764z2n6654dkh:8zaJ2CbebGAHGaj
46.23.78.24:1080:5h764z2n6654dkh:8zaJ2CbebGAHGaj
46.23.78.25:1080:5h764z2n6654dkh:8zaJ2CbebGAHGaj
68.71.244.10:1080:5h764z2n6654dkh:8zaJ2CbebGAHGaj
68.71.244.102:1080:5h764z2n6654dkh:8zaJ2CbebGAHGaj
68.71.244.14:1080:5h764z2n6654dkh:8zaJ2CbebGAHGaj
68.71.244.18:1080:5h764z2n6654dkh:8zaJ2CbebGAHGaj
68.71.244.22:1080:5h764z2n6654dkh:8zaJ2CbebGAHGaj
68.71.244.26:1080:5h764z2n6654dkh:8zaJ2CbebGAHGaj
68.71.244.30:1080:5h764z2n6654dkh:8zaJ2CbebGAHGaj
68.71.244.34:1080:5h764z2n6654dkh:8zaJ2CbebGAHGaj
68.71.244.38:1080:5h764z2n6654dkh:8zaJ2CbebGAHGaj
68.71.244.42:1080:5h764z2n6654dkh:8zaJ2CbebGAHGaj
68.71.244.46:1080:5h764z2n6654dkh:8zaJ2CbebGAHGaj
68.71.244.50:1080:5h764z2n6654dkh:8zaJ2CbebGAHGaj
68.71.244.54:1080:5h764z2n6654dkh:8zaJ2CbebGAHGaj
68.71.244.58:1080:5h764z2n6654dkh:8zaJ2CbebGAHGaj
68.71.244.6:1080:5h764z2n6654dkh:8zaJ2CbebGAHGaj
68.71.244.62:1080:5h764z2n6654dkh:8zaJ2CbebGAHGaj
68.71.244.66:1080:5h764z2n6654dkh:8zaJ2CbebGAHGaj
68.71.244.70:1080:5h764z2n6654dkh:8zaJ2CbebGAHGaj
68.71.244.78:1080:5h764z2n6654dkh:8zaJ2CbebGAHGaj
68.71.244.82:1080:5h764z2n6654dkh:8zaJ2CbebGAHGaj
68.71.244.90:1080:5h764z2n6654dkh:8zaJ2CbebGAHGaj
68.71.244.94:1080:5h764z2n6654dkh:8zaJ2CbebGAHGaj
68.71.244.98:1080:5h764z2n6654dkh:8zaJ2CbebGAHGaj
88.202.177.230:1080:5h764z2n6654dkh:8zaJ2CbebGAHGaj
88.202.177.231:1080:5h764z2n6654dkh:8zaJ2CbebGAHGaj
88.202.177.232:1080:5h764z2n6654dkh:8zaJ2CbebGAHGaj
88.202.177.233:1080:5h764z2n6654dkh:8zaJ2CbebGAHGaj
88.202.177.234:1080:5h764z2n6654dkh:8zaJ2CbebGAHGaj
88.202.177.235:1080:5h764z2n6654dkh:8zaJ2CbebGAHGaj
88.202.177.237:1080:5h764z2n6654dkh:8zaJ2CbebGAHGaj
88.202.177.238:1080:5h764z2n6654dkh:8zaJ2CbebGAHGaj
88.202.177.239:1080:5h764z2n6654dkh:8zaJ2CbebGAHGaj
88.202.177.240:1080:5h764z2n6654dkh:8zaJ2CbebGAHGaj
88.202.177.241:1080:5h764z2n6654dkh:8zaJ2CbebGAHGaj
88.202.177.242:1080:5h764z2n6654dkh:8zaJ2CbebGAHGaj
88.202.177.243:1080:5h764z2n6654dkh:8zaJ2CbebGAHGaj
89.238.177.194:1080:5h764z2n6654dkh:8zaJ2CbebGAHGaj
89.238.177.202:1080:5h764z2n6654dkh:8zaJ2CbebGAHGaj
146.70.26.10:1085:5h764z2n6654dkh:8zaJ2CbebGAHGaj
146.70.26.14:1085:5h764z2n6654dkh:8zaJ2CbebGAHGaj
146.70.26.18:1085:5h764z2n6654dkh:8zaJ2CbebGAHGaj
146.70.26.2:1085:5h764z2n6654dkh:8zaJ2CbebGAHGaj
146.70.26.22:1085:5h764z2n6654dkh:8zaJ2CbebGAHGaj
146.70.26.26:1085:5h764z2n6654dkh:8zaJ2CbebGAHGaj
146.70.26.30:1085:5h764z2n6654dkh:8zaJ2CbebGAHGaj
146.70.26.6:1085:5h764z2n6654dkh:8zaJ2CbebGAHGaj
185.156.172.154:1085:5h764z2n6654dkh:8zaJ2CbebGAHGaj
185.156.172.198:1085:5h764z2n6654dkh:8zaJ2CbebGAHGaj
185.212.171.114:1085:5h764z2n6654dkh:8zaJ2CbebGAHGaj
185.212.171.118:1085:5h764z2n6654dkh:8zaJ2CbebGAHGaj
194.59.250.194:1085:5h764z2n6654dkh:8zaJ2CbebGAHGaj
194.59.250.202:1085:5h764z2n6654dkh:8zaJ2CbebGAHGaj
194.59.250.210:1085:5h764z2n6654dkh:8zaJ2CbebGAHGaj
194.59.250.218:1085:5h764z2n6654dkh:8zaJ2CbebGAHGaj
194.59.250.226:1085:5h764z2n6654dkh:8zaJ2CbebGAHGaj
194.59.250.234:1085:5h764z2n6654dkh:8zaJ2CbebGAHGaj
194.59.250.242:1085:5h764z2n6654dkh:8zaJ2CbebGAHGaj
194.59.250.250:1085:5h764z2n6654dkh:8zaJ2CbebGAHGaj
2.58.44.226:1085:5h764z2n6654dkh:8zaJ2CbebGAHGaj
37.120.141.114:1085:5h764z2n6654dkh:8zaJ2CbebGAHGaj
37.120.141.122:1085:5h764z2n6654dkh:8zaJ2CbebGAHGaj
37.120.153.234:1085:5h764z2n6654dkh:8zaJ2CbebGAHGaj
37.120.153.242:1085:5h764z2n6654dkh:8zaJ2CbebGAHGaj
37.120.213.190:1085:5h764z2n6654dkh:8zaJ2CbebGAHGaj
37.120.213.34:1085:5h764z2n6654dkh:8zaJ2CbebGAHGaj
46.23.78.24:1085:5h764z2n6654dkh:8zaJ2CbebGAHGaj
46.23.78.25:1085:5h764z2n6654dkh:8zaJ2CbebGAHGaj
68.71.244.10:1085:5h764z2n6654dkh:8zaJ2CbebGAHGaj
68.71.244.102:1085:5h764z2n6654dkh:8zaJ2CbebGAHGaj
68.71.244.14:1085:5h764z2n6654dkh:8zaJ2CbebGAHGaj
68.71.244.18:1085:5h764z2n6654dkh:8zaJ2CbebGAHGaj
68.71.244.22:1085:5h764z2n6654dkh:8zaJ2CbebGAHGaj
68.71.244.26:1085:5h764z2n6654dkh:8zaJ2CbebGAHGaj
68.71.244.30:1085:5h764z2n6654dkh:8zaJ2CbebGAHGaj
68.71.244.34:1085:5h764z2n6654dkh:8zaJ2CbebGAHGaj
68.71.244.38:1085:5h764z2n6654dkh:8zaJ2CbebGAHGaj
68.71.244.42:1085:5h764z2n6654dkh:8zaJ2CbebGAHGaj
68.71.244.46:1085:5h764z2n6654dkh:8zaJ2CbebGAHGaj
68.71.244.50:1085:5h764z2n6654dkh:8zaJ2CbebGAHGaj
68.71.244.54:1085:5h764z2n6654dkh:8zaJ2CbebGAHGaj
68.71.244.58:1085:5h764z2n6654dkh:8zaJ2CbebGAHGaj
68.71.244.6:1085:5h764z2n6654dkh:8zaJ2CbebGAHGaj
68.71.244.62:1085:5h764z2n6654dkh:8zaJ2CbebGAHGaj
68.71.244.66:1085:5h764z2n6654dkh:8zaJ2CbebGAHGaj
68.71.244.70:1085:5h764z2n6654dkh:8zaJ2CbebGAHGaj
68.71.244.78:1085:5h764z2n6654dkh:8zaJ2CbebGAHGaj
68.71.244.82:1085:5h764z2n6654dkh:8zaJ2CbebGAHGaj
68.71.244.90:1085:5h764z2n6654dkh:8zaJ2CbebGAHGaj
68.71.244.94:1085:5h764z2n6654dkh:8zaJ2CbebGAHGaj
68.71.244.98:1085:5h764z2n6654dkh:8zaJ2CbebGAHGaj
88.202.177.230:1085:5h764z2n6654dkh:8zaJ2CbebGAHGaj
88.202.177.231:1085:5h764z2n6654dkh:8zaJ2CbebGAHGaj
88.202.177.232:1085:5h764z2n6654dkh:8zaJ2CbebGAHGaj
88.202.177.233:1085:5h764z2n6654dkh:8zaJ2CbebGAHGaj
88.202.177.234:1085:5h764z2n6654dkh:8zaJ2CbebGAHGaj
88.202.177.235:1085:5h764z2n6654dkh:8zaJ2CbebGAHGaj
88.202.177.237:1085:5h764z2n6654dkh:8zaJ2CbebGAHGaj
88.202.177.238:1085:5h764z2n6654dkh:8zaJ2CbebGAHGaj
88.202.177.239:1085:5h764z2n6654dkh:8zaJ2CbebGAHGaj
88.202.177.240:1085:5h764z2n6654dkh:8zaJ2CbebGAHGaj
88.202.177.241:1085:5h764z2n6654dkh:8zaJ2CbebGAHGaj
88.202.177.242:1085:5h764z2n6654dkh:8zaJ2CbebGAHGaj
88.202.177.243:1085:5h764z2n6654dkh:8zaJ2CbebGAHGaj
89.238.177.194:1085:5h764z2n6654dkh:8zaJ2CbebGAHGaj
89.238.177.202:1085:5h764z2n6654dkh:8zaJ2CbebGAHGaj
146.70.26.10:1090:5h764z2n6654dkh:8zaJ2CbebGAHGaj
146.70.26.14:1090:5h764z2n6654dkh:8zaJ2CbebGAHGaj
146.70.26.18:1090:5h764z2n6654dkh:8zaJ2CbebGAHGaj
146.70.26.2:1090:5h764z2n6654dkh:8zaJ2CbebGAHGaj
146.70.26.22:1090:5h764z2n6654dkh:8zaJ2CbebGAHGaj
146.70.26.26:1090:5h764z2n6654dkh:8zaJ2CbebGAHGaj
146.70.26.30:1090:5h764z2n6654dkh:8zaJ2CbebGAHGaj
146.70.26.6:1090:5h764z2n6654dkh:8zaJ2CbebGAHGaj
185.156.172.154:1090:5h764z2n6654dkh:8zaJ2CbebGAHGaj
185.156.172.198:1090:5h764z2n6654dkh:8zaJ2CbebGAHGaj
185.212.171.114:1090:5h764z2n6654dkh:8zaJ2CbebGAHGaj
185.212.171.118:1090:5h764z2n6654dkh:8zaJ2CbebGAHGaj
194.59.250.194:1090:5h764z2n6654dkh:8zaJ2CbebGAHGaj
194.59.250.202:1090:5h764z2n6654dkh:8zaJ2CbebGAHGaj
194.59.250.210:1090:5h764z2n6654dkh:8zaJ2CbebGAHGaj
194.59.250.218:1090:5h764z2n6654dkh:8zaJ2CbebGAHGaj
194.59.250.226:1090:5h764z2n6654dkh:8zaJ2CbebGAHGaj
194.59.250.234:1090:5h764z2n6654dkh:8zaJ2CbebGAHGaj
194.59.250.242:1090:5h764z2n6654dkh:8zaJ2CbebGAHGaj
194.59.250.250:1090:5h764z2n6654dkh:8zaJ2CbebGAHGaj
2.58.44.226:1090:5h764z2n6654dkh:8zaJ2CbebGAHGaj
37.120.141.114:1090:5h764z2n6654dkh:8zaJ2CbebGAHGaj
37.120.141.122:1090:5h764z2n6654dkh:8zaJ2CbebGAHGaj
37.120.153.234:1090:5h764z2n6654dkh:8zaJ2CbebGAHGaj
37.120.153.242:1090:5h764z2n6654dkh:8zaJ2CbebGAHGaj
37.120.213.190:1090:5h764z2n6654dkh:8zaJ2CbebGAHGaj
37.120.213.34:1090:5h764z2n6654dkh:8zaJ2CbebGAHGaj
46.23.78.24:1090:5h764z2n6654dkh:8zaJ2CbebGAHGaj
46.23.78.25:1090:5h764z2n6654dkh:8zaJ2CbebGAHGaj
68.71.244.10:1090:5h764z2n6654dkh:8zaJ2CbebGAHGaj
68.71.244.102:1090:5h764z2n6654dkh:8zaJ2CbebGAHGaj
68.71.244.14:1090:5h764z2n6654dkh:8zaJ2CbebGAHGaj
68.71.244.18:1090:5h764z2n6654dkh:8zaJ2CbebGAHGaj
68.71.244.22:1090:5h764z2n6654dkh:8zaJ2CbebGAHGaj
68.71.244.26:1090:5h764z2n6654dkh:8zaJ2CbebGAHGaj
68.71.244.30:1090:5h764z2n6654dkh:8zaJ2CbebGAHGaj
68.71.244.34:1090:5h764z2n6654dkh:8zaJ2CbebGAHGaj
68.71.244.38:1090:5h764z2n6654dkh:8zaJ2CbebGAHGaj
68.71.244.42:1090:5h764z2n6654dkh:8zaJ2CbebGAHGaj
68.71.244.46:1090:5h764z2n6654dkh:8zaJ2CbebGAHGaj
68.71.244.50:1090:5h764z2n6654dkh:8zaJ2CbebGAHGaj
68.71.244.54:1090:5h764z2n6654dkh:8zaJ2CbebGAHGaj
68.71.244.58:1090:5h764z2n6654dkh:8zaJ2CbebGAHGaj
68.71.244.6:1090:5h764z2n6654dkh:8zaJ2CbebGAHGaj
68.71.244.62:1090:5h764z2n6654dkh:8zaJ2CbebGAHGaj
68.71.244.66:1090:5h764z2n6654dkh:8zaJ2CbebGAHGaj
68.71.244.70:1090:5h764z2n6654dkh:8zaJ2CbebGAHGaj
68.71.244.78:1090:5h764z2n6654dkh:8zaJ2CbebGAHGaj
68.71.244.82:1090:5h764z2n6654dkh:8zaJ2CbebGAHGaj
68.71.244.90:1090:5h764z2n6654dkh:8zaJ2CbebGAHGaj
68.71.244.94:1090:5h764z2n6654dkh:8zaJ2CbebGAHGaj
68.71.244.98:1090:5h764z2n6654dkh:8zaJ2CbebGAHGaj
88.202.177.230:1090:5h764z2n6654dkh:8zaJ2CbebGAHGaj
88.202.177.231:1090:5h764z2n6654dkh:8zaJ2CbebGAHGaj
88.202.177.232:1090:5h764z2n6654dkh:8zaJ2CbebGAHGaj
88.202.177.233:1090:5h764z2n6654dkh:8zaJ2CbebGAHGaj
88.202.177.234:1090:5h764z2n6654dkh:8zaJ2CbebGAHGaj
88.202.177.235:1090:5h764z2n6654dkh:8zaJ2CbebGAHGaj
88.202.177.237:1090:5h764z2n6654dkh:8zaJ2CbebGAHGaj
88.202.177.238:1090:5h764z2n6654dkh:8zaJ2CbebGAHGaj
88.202.177.239:1090:5h764z2n6654dkh:8zaJ2CbebGAHGaj
88.202.177.240:1090:5h764z2n6654dkh:8zaJ2CbebGAHGaj
88.202.177.241:1090:5h764z2n6654dkh:8zaJ2CbebGAHGaj
88.202.177.242:1090:5h764z2n6654dkh:8zaJ2CbebGAHGaj
88.202.177.243:1090:5h764z2n6654dkh:8zaJ2CbebGAHGaj
89.238.177.194:1090:5h764z2n6654dkh:8zaJ2CbebGAHGaj
89.238.177.202:1090:5h764z2n6654dkh:8zaJ2CbebGAHGaj
socks-us.windscribe.com:1080:w6l7nxou-juny5cz:mfu5zvkscg
socks-nl.windscribe.com:1080:w6l7nxou-juny5cz:mfu5zvkscg
proxy-nl.privateinternetaccess.com:1080:x8900768:8n2hLPPqaQ
ar-bue.pvdata.host:1080:junelynpalmatv@gmail.com:EWHAZwW7x6YgCcf
au-bri.pvdata.host:1080:junelynpalmatv@gmail.com:EWHAZwW7x6YgCcf
au-per.pvdata.host:1080:junelynpalmatv@gmail.com:EWHAZwW7x6YgCcf
au-mel.pvdata.host:1080:junelynpalmatv@gmail.com:EWHAZwW7x6YgCcf
au-syd.pvdata.host:1080:junelynpalmatv@gmail.com:EWHAZwW7x6YgCcf
at-wie.pvdata.host:1080:junelynpalmatv@gmail.com:EWHAZwW7x6YgCcf
be-bru.pvdata.host:1080:junelynpalmatv@gmail.com:EWHAZwW7x6YgCcf
br-sao.pvdata.host:1080:junelynpalmatv@gmail.com:EWHAZwW7x6YgCcf
bg-sof.pvdata.host:1080:junelynpalmatv@gmail.com:EWHAZwW7x6YgCcf
ca-mon.pvdata.host:1080:junelynpalmatv@gmail.com:EWHAZwW7x6YgCcf
ca-tor.pvdata.host:1080:junelynpalmatv@gmail.com:EWHAZwW7x6YgCcf
ca-van.pvdata.host:1080:junelynpalmatv@gmail.com:EWHAZwW7x6YgCcf
cl-san.pvdata.host:1080:junelynpalmatv@gmail.com:EWHAZwW7x6YgCcf
co-bog.pvdata.host:1080:junelynpalmatv@gmail.com:EWHAZwW7x6YgCcf
cr-san.pvdata.host:1080:junelynpalmatv@gmail.com:EWHAZwW7x6YgCcf
hr-zag.pvdata.host:1080:junelynpalmatv@gmail.com:EWHAZwW7x6YgCcf
cy-nic.pvdata.host:1080:junelynpalmatv@gmail.com:EWHAZwW7x6YgCcf
cz-pra.pvdata.host:1080:junelynpalmatv@gmail.com:EWHAZwW7x6YgCcf
dk-cop.pvdata.host:1080:junelynpalmatv@gmail.com:EWHAZwW7x6YgCcf
ee-tal.pvdata.host:1080:junelynpalmatv@gmail.com:EWHAZwW7x6YgCcf
fi-esp.pvdata.host:1080:junelynpalmatv@gmail.com:EWHAZwW7x6YgCcf
fr-par.pvdata.host:1080:junelynpalmatv@gmail.com:EWHAZwW7x6YgCcf
de-ber.pvdata.host:1080:junelynpalmatv@gmail.com:EWHAZwW7x6YgCcf
de-fra.pvdata.host:1080:junelynpalmatv@gmail.com:EWHAZwW7x6YgCcf
gr-ath.pvdata.host:1080:junelynpalmatv@gmail.com:EWHAZwW7x6YgCcf
hk-hon.pvdata.host:1080:junelynpalmatv@gmail.com:EWHAZwW7x6YgCcf
hk-china.pvdata.host:1080:junelynpalmatv@gmail.com:EWHAZwW7x6YgCcf
hu-bud.pvdata.host:1080:junelynpalmatv@gmail.com:EWHAZwW7x6YgCcf
is-rey.pvdata.host:1080:junelynpalmatv@gmail.com:EWHAZwW7x6YgCcf
in-ban.pvdata.host:1080:junelynpalmatv@gmail.com:EWHAZwW7x6YgCcf
in-mum.pvdata.host:1080:junelynpalmatv@gmail.com:EWHAZwW7x6YgCcf
id-jak.pvdata.host:1080:junelynpalmatv@gmail.com:EWHAZwW7x6YgCcf
ie-dub.pvdata.host:1080:junelynpalmatv@gmail.com:EWHAZwW7x6YgCcf
im-bal.pvdata.host:1080:junelynpalmatv@gmail.com:EWHAZwW7x6YgCcf
il-tel.pvdata.host:1080:junelynpalmatv@gmail.com:EWHAZwW7x6YgCcf
it-mil.pvdata.host:1080:junelynpalmatv@gmail.com:EWHAZwW7x6YgCcf
jp-tok.pvdata.host:1080:junelynpalmatv@gmail.com:EWHAZwW7x6YgCcf
lv-rig.pvdata.host:1080:junelynpalmatv@gmail.com:EWHAZwW7x6YgCcf
lt-sia.pvdata.host:1080:junelynpalmatv@gmail.com:EWHAZwW7x6YgCcf
lu-ste.pvdata.host:1080:junelynpalmatv@gmail.com:EWHAZwW7x6YgCcf
my-kua.pvdata.host:1080:junelynpalmatv@gmail.com:EWHAZwW7x6YgCcf
mt-qor.pvdata.host:1080:junelynpalmatv@gmail.com:EWHAZwW7x6YgCcf
mx-mex.pvdata.host:1080:junelynpalmatv@gmail.com:EWHAZwW7x6YgCcf
md-chi.pvdata.host:1080:junelynpalmatv@gmail.com:EWHAZwW7x6YgCcf
nl-ams.pvdata.host:1080:junelynpalmatv@gmail.com:EWHAZwW7x6YgCcf
nz-auc.pvdata.host:1080:junelynpalmatv@gmail.com:EWHAZwW7x6YgCcf
ng-lag.pvdata.host:1080:junelynpalmatv@gmail.com:EWHAZwW7x6YgCcf
no-osl.pvdata.host:1080:junelynpalmatv@gmail.com:EWHAZwW7x6YgCcf
pa-pan.pvdata.host:1080:junelynpalmatv@gmail.com:EWHAZwW7x6YgCcf
pe-lim.pvdata.host:1080:junelynpalmatv@gmail.com:EWHAZwW7x6YgCcf
ph-man.pvdata.host:1080:junelynpalmatv@gmail.com:EWHAZwW7x6YgCcf
pl-tor.pvdata.host:1080:junelynpalmatv@gmail.com:EWHAZwW7x6YgCcf
pt-lis.pvdata.host:1080:junelynpalmatv@gmail.com:EWHAZwW7x6YgCcf
ro-buk.pvdata.host:1080:junelynpalmatv@gmail.com:EWHAZwW7x6YgCcf
ru-kra.pvdata.host:1080:junelynpalmatv@gmail.com:EWHAZwW7x6YgCcf
ru-mos.pvdata.host:1080:junelynpalmatv@gmail.com:EWHAZwW7x6YgCcf
ru-pet.pvdata.host:1080:junelynpalmatv@gmail.com:EWHAZwW7x6YgCcf
rs-bel.pvdata.host:1080:junelynpalmatv@gmail.com:EWHAZwW7x6YgCcf
sg-sin.pvdata.host:1080:junelynpalmatv@gmail.com:EWHAZwW7x6YgCcf
sk-bra.pvdata.host:1080:junelynpalmatv@gmail.com:EWHAZwW7x6YgCcf
za-joh.pvdata.host:1080:junelynpalmatv@gmail.com:EWHAZwW7x6YgCcf
kr-seo.pvdata.host:1080:junelynpalmatv@gmail.com:EWHAZwW7x6YgCcf
es-mad.pvdata.host:1080:junelynpalmatv@gmail.com:EWHAZwW7x6YgCcf
se-got.pvdata.host:1080:junelynpalmatv@gmail.com:EWHAZwW7x6YgCcf
se-kis.pvdata.host:1080:junelynpalmatv@gmail.com:EWHAZwW7x6YgCcf
se-sto.pvdata.host:1080:junelynpalmatv@gmail.com:EWHAZwW7x6YgCcf
ch-zur.pvdata.host:1080:junelynpalmatv@gmail.com:EWHAZwW7x6YgCcf
tw-tai.pvdata.host:1080:junelynpalmatv@gmail.com:EWHAZwW7x6YgCcf
th-ban.pvdata.host:1080:junelynpalmatv@gmail.com:EWHAZwW7x6YgCcf
tr-ist.pvdata.host:1080:junelynpalmatv@gmail.com:EWHAZwW7x6YgCcf
uk-lon.pvdata.host:1080:junelynpalmatv@gmail.com:EWHAZwW7x6YgCcf
uk-man.pvdata.host:1080:junelynpalmatv@gmail.com:EWHAZwW7x6YgCcf
ua-nik.pvdata.host:1080:junelynpalmatv@gmail.com:EWHAZwW7x6YgCcf
ae-dub.pvdata.host:1080:junelynpalmatv@gmail.com:EWHAZwW7x6YgCcf
us-atl.pvdata.host:1080:junelynpalmatv@gmail.com:EWHAZwW7x6YgCcf
us-buf.pvdata.host:1080:junelynpalmatv@gmail.com:EWHAZwW7x6YgCcf
us-chi.pvdata.host:1080:junelynpalmatv@gmail.com:EWHAZwW7x6YgCcf
us-dal.pvdata.host:1080:junelynpalmatv@gmail.com:EWHAZwW7x6YgCcf
us-den.pvdata.host:1080:junelynpalmatv@gmail.com:EWHAZwW7x6YgCcf
us-las.pvdata.host:1080:junelynpalmatv@gmail.com:EWHAZwW7x6YgCcf
us-los.pvdata.host:1080:junelynpalmatv@gmail.com:EWHAZwW7x6YgCcf
us-mia.pvdata.host:1080:junelynpalmatv@gmail.com:EWHAZwW7x6YgCcf
us-jer.pvdata.host:1080:junelynpalmatv@gmail.com:EWHAZwW7x6YgCcf
us-nyc.pvdata.host:1080:junelynpalmatv@gmail.com:EWHAZwW7x6YgCcf
us-pho.pvdata.host:1080:junelynpalmatv@gmail.com:EWHAZwW7x6YgCcf
us-sea.pvdata.host:1080:junelynpalmatv@gmail.com:EWHAZwW7x6YgCcf
vn-hoc.pvdata.host:1080:junelynpalmatv@gmail.com:EWHAZwW7x6YgCcf
46.161.63.219:1080:UA_NAKOW25ER:jupTDNp7
46.161.63.83:1080:UA_NAKOW25ER:jupTDNp7
46.161.63.170:1080:UA_NAKOW25ER:jupTDNp7
146.185.200.222:1080:UA_NAKOW25ER:jupTDNp7
46.161.63.115:1080:UA_NAKOW25ER:jupTDNp7
146.185.200.103:1080:UA_NAKOW25ER:jupTDNp7
185.88.36.135:1080:UA_NAKOW25ER:jupTDNp7
79.110.28.13:1080:UA_NAKOW25ER:jupTDNp7
79.110.28.55:1080:UA_NAKOW25ER:jupTDNp7
146.185.200.70:1080:UA_NAKOW25ER:jupTDNp7
79.110.28.54:1080:UA_NAKOW25ER:jupTDNp7
146.185.200.58:1080:UA_NAKOW25ER:jupTDNp7
146.185.200.191:1080:UA_NAKOW25ER:jupTDNp7
46.161.63.74:1080:UA_NAKOW25ER:jupTDNp7
46.161.63.141:1080:UA_NAKOW25ER:jupTDNp7
79.110.28.87:1080:UA_NAKOW25ER:jupTDNp7
46.161.63.240:1080:UA_NAKOW25ER:jupTDNp7
185.88.36.237:1080:UA_NAKOW25ER:jupTDNp7
185.88.36.41:1080:UA_NAKOW25ER:jupTDNp7
79.110.28.226:1080:UA_NAKOW25ER:jupTDNp7
146.185.200.161:1080:UA_NAKOW25ER:jupTDNp7
46.161.63.63:1080:UA_NAKOW25ER:jupTDNp7
79.110.28.249:1080:UA_NAKOW25ER:jupTDNp7
146.185.200.111:1080:UA_NAKOW25ER:jupTDNp7
146.185.200.101:1080:UA_NAKOW25ER:jupTDNp7
146.185.200.130:1080:UA_NAKOW25ER:jupTDNp7
46.161.62.245:1080:UA_NAKOW25ER:jupTDNp7
79.110.28.53:1080:UA_NAKOW25ER:jupTDNp7
79.110.28.72:1080:UA_NAKOW25ER:jupTDNp7
185.88.36.76:1080:UA_NAKOW25ER:jupTDNp7
146.185.200.155:1080:UA_NAKOW25ER:jupTDNp7
146.185.200.51:1080:UA_NAKOW25ER:jupTDNp7
79.110.28.98:1080:UA_NAKOW25ER:jupTDNp7
46.161.62.252:1080:UA_NAKOW25ER:jupTDNp7
146.185.200.246:1080:UA_NAKOW25ER:jupTDNp7
79.110.28.162:1080:UA_NAKOW25ER:jupTDNp7
46.161.62.220:1080:UA_NAKOW25ER:jupTDNp7
46.161.62.224:1080:UA_NAKOW25ER:jupTDNp7
146.185.200.173:1080:UA_NAKOW25ER:jupTDNp7
79.110.28.181:1080:UA_NAKOW25ER:jupTDNp7
79.110.28.49:1080:UA_NAKOW25ER:jupTDNp7
146.185.200.119:1080:UA_NAKOW25ER:jupTDNp7
46.161.63.125:1080:UA_NAKOW25ER:jupTDNp7
46.161.63.196:1080:UA_NAKOW25ER:jupTDNp7
79.110.28.198:1080:UA_NAKOW25ER:jupTDNp7
185.88.36.18:1080:UA_NAKOW25ER:jupTDNp7
185.88.36.143:1080:UA_NAKOW25ER:jupTDNp7
146.185.200.147:1080:UA_NAKOW25ER:jupTDNp7
146.185.200.131:1080:UA_NAKOW25ER:jupTDNp7
79.110.28.247:1080:UA_NAKOW25ER:jupTDNp7
46.161.63.250:1080:UA_NAKOW25ER:jupTDNp7
146.185.200.94:1080:UA_NAKOW25ER:jupTDNp7
79.110.28.164:1080:UA_NAKOW25ER:jupTDNp7
46.161.63.76:1080:UA_NAKOW25ER:jupTDNp7
146.185.200.207:1080:UA_NAKOW25ER:jupTDNp7
185.88.36.231:1080:UA_NAKOW25ER:jupTDNp7
79.110.28.243:1080:UA_NAKOW25ER:jupTDNp7
185.88.36.160:1080:UA_NAKOW25ER:jupTDNp7
46.161.63.157:1080:UA_NAKOW25ER:jupTDNp7
79.110.28.216:1080:UA_NAKOW25ER:jupTDNp7
185.88.36.47:1080:UA_NAKOW25ER:jupTDNp7
79.110.28.22:1080:UA_NAKOW25ER:jupTDNp7
46.161.62.239:1080:UA_NAKOW25ER:jupTDNp7
185.88.36.131:1080:UA_NAKOW25ER:jupTDNp7
79.110.28.88:1080:UA_NAKOW25ER:jupTDNp7
185.88.36.11:1080:UA_NAKOW25ER:jupTDNp7
185.88.36.183:1080:UA_NAKOW25ER:jupTDNp7
79.110.28.100:1080:UA_NAKOW25ER:jupTDNp7
79.110.28.185:1080:UA_NAKOW25ER:jupTDNp7
79.110.28.200:1080:UA_NAKOW25ER:jupTDNp7
146.185.200.228:1080:UA_NAKOW25ER:jupTDNp7
46.161.63.220:1080:UA_NAKOW25ER:jupTDNp7
46.161.63.84:1080:UA_NAKOW25ER:jupTDNp7
46.161.63.66:1080:UA_NAKOW25ER:jupTDNp7
46.161.62.197:1080:UA_NAKOW25ER:jupTDNp7
185.88.36.169:1080:UA_NAKOW25ER:jupTDNp7
79.110.28.52:1080:UA_NAKOW25ER:jupTDNp7
79.110.28.39:1080:UA_NAKOW25ER:jupTDNp7
185.88.36.221:1080:UA_NAKOW25ER:jupTDNp7
185.88.36.235:1080:UA_NAKOW25ER:jupTDNp7
146.185.200.69:1080:UA_NAKOW25ER:jupTDNp7
79.110.28.153:1080:UA_NAKOW25ER:jupTDNp7
46.161.63.214:1080:UA_NAKOW25ER:jupTDNp7
185.88.36.155:1080:UA_NAKOW25ER:jupTDNp7
146.185.200.62:1080:UA_NAKOW25ER:jupTDNp7
146.185.200.89:1080:UA_NAKOW25ER:jupTDNp7
146.185.200.91:1080:UA_NAKOW25ER:jupTDNp7
46.161.63.242:1080:UA_NAKOW25ER:jupTDNp7
79.110.28.70:1080:UA_NAKOW25ER:jupTDNp7
79.110.28.73:1080:UA_NAKOW25ER:jupTDNp7
185.88.36.142:1080:UA_NAKOW25ER:jupTDNp7
185.88.36.40:1080:UA_NAKOW25ER:jupTDNp7
146.185.200.100:1080:UA_NAKOW25ER:jupTDNp7
185.88.36.225:1080:UA_NAKOW25ER:jupTDNp7
79.110.28.188:1080:UA_NAKOW25ER:jupTDNp7
146.185.200.85:1080:UA_NAKOW25ER:jupTDNp7
185.88.36.180:1080:UA_NAKOW25ER:jupTDNp7
185.88.36.215:1080:UA_NAKOW25ER:jupTDNp7
146.185.200.41:1080:UA_NAKOW25ER:jupTDNp7
79.110.28.89:1080:UA_NAKOW25ER:jupTDNp7
185.88.36.162:1080:UA_NAKOW25ER:jupTDNp7
46.161.63.47:1080:UA_NAKOW25ER:jupTDNp7
146.185.200.187:1080:UA_NAKOW25ER:jupTDNp7
79.110.28.157:1080:UA_NAKOW25ER:jupTDNp7
46.161.63.201:1080:UA_NAKOW25ER:jupTDNp7
146.185.200.28:1080:UA_NAKOW25ER:jupTDNp7
46.161.62.213:1080:UA_NAKOW25ER:jupTDNp7
46.161.63.102:1080:UA_NAKOW25ER:jupTDNp7
46.161.63.28:1080:UA_NAKOW25ER:jupTDNp7
146.185.200.106:1080:UA_NAKOW25ER:jupTDNp7
46.161.63.194:1080:UA_NAKOW25ER:jupTDNp7
185.88.36.118:1080:UA_NAKOW25ER:jupTDNp7
79.110.28.171:1080:UA_NAKOW25ER:jupTDNp7
146.185.200.98:1080:UA_NAKOW25ER:jupTDNp7
146.185.200.135:1080:UA_NAKOW25ER:jupTDNp7
46.161.63.29:1080:UA_NAKOW25ER:jupTDNp7
185.88.36.196:1080:UA_NAKOW25ER:jupTDNp7
185.88.36.179:1080:UA_NAKOW25ER:jupTDNp7
79.110.28.62:1080:UA_NAKOW25ER:jupTDNp7
46.161.62.194:1080:UA_NAKOW25ER:jupTDNp7
79.110.28.221:1080:UA_NAKOW25ER:jupTDNp7
146.185.200.38:1080:UA_NAKOW25ER:jupTDNp7
79.110.28.27:1080:UA_NAKOW25ER:jupTDNp7
79.110.28.119:1080:UA_NAKOW25ER:jupTDNp7
46.161.63.85:1080:UA_NAKOW25ER:jupTDNp7
146.185.200.220:1080:UA_NAKOW25ER:jupTDNp7
146.185.200.234:1080:UA_NAKOW25ER:jupTDNp7
79.110.28.215:1080:UA_NAKOW25ER:jupTDNp7
146.185.200.142:1080:UA_NAKOW25ER:jupTDNp7
146.185.200.118:1080:UA_NAKOW25ER:jupTDNp7
46.161.63.238:1080:UA_NAKOW25ER:jupTDNp7
79.110.28.84:1080:UA_NAKOW25ER:jupTDNp7
185.88.36.37:1080:UA_NAKOW25ER:jupTDNp7
46.161.63.231:1080:UA_NAKOW25ER:jupTDNp7
146.185.200.68:1080:UA_NAKOW25ER:jupTDNp7
146.185.200.128:1080:UA_NAKOW25ER:jupTDNp7
46.161.63.128:1080:UA_NAKOW25ER:jupTDNp7
46.161.63.50:1080:UA_NAKOW25ER:jupTDNp7
185.88.36.61:1080:UA_NAKOW25ER:jupTDNp7
79.110.28.78:1080:UA_NAKOW25ER:jupTDNp7
185.88.36.141:1080:UA_NAKOW25ER:jupTDNp7
146.185.200.54:1080:UA_NAKOW25ER:jupTDNp7
46.161.63.61:1080:UA_NAKOW25ER:jupTDNp7
79.110.28.204:1080:UA_NAKOW25ER:jupTDNp7
185.88.36.202:1080:UA_NAKOW25ER:jupTDNp7
46.161.62.196:1080:UA_NAKOW25ER:jupTDNp7
46.161.62.249:1080:UA_NAKOW25ER:jupTDNp7
185.88.36.115:1080:UA_NAKOW25ER:jupTDNp7
185.88.36.163:1080:UA_NAKOW25ER:jupTDNp7
185.88.36.190:1080:UA_NAKOW25ER:jupTDNp7
146.185.200.75:1080:UA_NAKOW25ER:jupTDNp7
146.185.200.159:1080:UA_NAKOW25ER:jupTDNp7
46.161.62.225:1080:UA_NAKOW25ER:jupTDNp7
46.161.63.73:1080:UA_NAKOW25ER:jupTDNp7
146.185.200.15:1080:UA_NAKOW25ER:jupTDNp7
79.110.28.93:1080:UA_NAKOW25ER:jupTDNp7
79.110.28.31:1080:UA_NAKOW25ER:jupTDNp7
46.161.62.218:1080:UA_NAKOW25ER:jupTDNp7
79.110.28.76:1080:UA_NAKOW25ER:jupTDNp7
79.110.28.187:1080:UA_NAKOW25ER:jupTDNp7
185.88.36.181:1080:UA_NAKOW25ER:jupTDNp7
79.110.28.168:1080:UA_NAKOW25ER:jupTDNp7
79.110.28.101:1080:UA_NAKOW25ER:jupTDNp7
79.110.28.194:1080:UA_NAKOW25ER:jupTDNp7
146.185.200.241:1080:UA_NAKOW25ER:jupTDNp7
146.185.200.208:1080:UA_NAKOW25ER:jupTDNp7
46.161.63.167:1080:UA_NAKOW25ER:jupTDNp7
146.185.200.242:1080:UA_NAKOW25ER:jupTDNp7
79.110.28.125:1080:UA_NAKOW25ER:jupTDNp7
46.161.63.243:1080:UA_NAKOW25ER:jupTDNp7
146.185.200.133:1080:UA_NAKOW25ER:jupTDNp7
185.88.36.191:1080:UA_NAKOW25ER:jupTDNp7
79.110.28.30:1080:UA_NAKOW25ER:jupTDNp7
146.185.200.126:1080:UA_NAKOW25ER:jupTDNp7
46.161.63.139:1080:UA_NAKOW25ER:jupTDNp7
185.88.36.52:1080:UA_NAKOW25ER:jupTDNp7
46.161.63.37:1080:UA_NAKOW25ER:jupTDNp7
79.110.28.42:1080:UA_NAKOW25ER:jupTDNp7
46.161.63.40:1080:UA_NAKOW25ER:jupTDNp7
46.161.63.176:1080:UA_NAKOW25ER:jupTDNp7
146.185.200.146:1080:UA_NAKOW25ER:jupTDNp7
185.88.36.107:1080:UA_NAKOW25ER:jupTDNp7
146.185.200.125:1080:UA_NAKOW25ER:jupTDNp7
185.88.36.227:1080:UA_NAKOW25ER:jupTDNp7
46.161.62.246:1080:UA_NAKOW25ER:jupTDNp7
185.88.36.130:1080:UA_NAKOW25ER:jupTDNp7
185.88.36.50:1080:UA_NAKOW25ER:jupTDNp7
146.185.200.244:1080:UA_NAKOW25ER:jupTDNp7
79.110.28.196:1080:UA_NAKOW25ER:jupTDNp7
46.161.63.86:1080:UA_NAKOW25ER:jupTDNp7
46.161.63.225:1080:UA_NAKOW25ER:jupTDNp7
46.161.63.136:1080:UA_NAKOW25ER:jupTDNp7
79.110.28.172:1080:UA_NAKOW25ER:jupTDNp7
185.88.36.75:1080:UA_NAKOW25ER:jupTDNp7
79.110.28.158:1080:UA_NAKOW25ER:jupTDNp7
46.161.63.36:1080:UA_NAKOW25ER:jupTDNp7
185.88.36.214:1080:UA_NAKOW25ER:jupTDNp7
46.161.63.27:1080:UA_NAKOW25ER:jupTDNp7
46.161.63.135:1080:UA_NAKOW25ER:jupTDNp7
79.110.28.59:1080:UA_NAKOW25ER:jupTDNp7
146.185.200.177:1080:UA_NAKOW25ER:jupTDNp7
146.185.200.223:1080:UA_NAKOW25ER:jupTDNp7
146.185.200.183:1080:UA_NAKOW25ER:jupTDNp7
46.161.63.148:1080:UA_NAKOW25ER:jupTDNp7
146.185.200.195:1080:UA_NAKOW25ER:jupTDNp7
146.185.200.122:1080:UA_NAKOW25ER:jupTDNp7
146.185.200.235:1080:UA_NAKOW25ER:jupTDNp7
185.88.36.138:1080:UA_NAKOW25ER:jupTDNp7
185.88.36.209:1080:UA_NAKOW25ER:jupTDNp7
185.88.36.140:1080:UA_NAKOW25ER:jupTDNp7
146.185.200.117:1080:UA_NAKOW25ER:jupTDNp7
79.110.28.18:1080:UA_NAKOW25ER:jupTDNp7
46.161.63.80:1080:UA_NAKOW25ER:jupTDNp7
46.161.63.98:1080:UA_NAKOW25ER:jupTDNp7
146.185.200.230:1080:UA_NAKOW25ER:jupTDNp7
46.161.62.251:1080:UA_NAKOW25ER:jupTDNp7
185.88.36.187:1080:UA_NAKOW25ER:jupTDNp7
79.110.28.58:1080:UA_NAKOW25ER:jupTDNp7
146.185.200.172:1080:UA_NAKOW25ER:jupTDNp7
46.161.63.178:1080:UA_NAKOW25ER:jupTDNp7
46.161.63.64:1080:UA_NAKOW25ER:jupTDNp7
185.88.36.220:1080:UA_NAKOW25ER:jupTDNp7
79.110.28.38:1080:UA_NAKOW25ER:jupTDNp7
146.185.200.240:1080:UA_NAKOW25ER:jupTDNp7
46.161.63.39:1080:UA_NAKOW25ER:jupTDNp7
185.88.36.246:1080:UA_NAKOW25ER:jupTDNp7
185.88.36.158:1080:UA_NAKOW25ER:jupTDNp7
185.88.36.19:1080:UA_NAKOW25ER:jupTDNp7
146.185.200.153:1080:UA_NAKOW25ER:jupTDNp7
185.88.36.150:1080:UA_NAKOW25ER:jupTDNp7
146.185.200.39:1080:UA_NAKOW25ER:jupTDNp7
46.161.62.212:1080:UA_NAKOW25ER:jupTDNp7
79.110.28.130:1080:UA_NAKOW25ER:jupTDNp7
46.161.63.41:1080:UA_NAKOW25ER:jupTDNp7
46.161.63.69:1080:UA_NAKOW25ER:jupTDNp7
46.161.63.156:1080:UA_NAKOW25ER:jupTDNp7
46.161.63.52:1080:UA_NAKOW25ER:jupTDNp7
46.161.63.204:1080:UA_NAKOW25ER:jupTDNp7
46.161.63.162:1080:UA_NAKOW25ER:jupTDNp7
46.161.62.236:1080:UA_NAKOW25ER:jupTDNp7
79.110.28.26:1080:UA_NAKOW25ER:jupTDNp7
146.185.200.123:1080:UA_NAKOW25ER:jupTDNp7
146.185.200.197:1080:UA_NAKOW25ER:jupTDNp7
79.110.28.141:1080:UA_NAKOW25ER:jupTDNp7
79.110.28.142:1080:UA_NAKOW25ER:jupTDNp7
185.88.36.21:1080:UA_NAKOW25ER:jupTDNp7
46.161.63.174:1080:UA_NAKOW25ER:jupTDNp7
46.161.63.137:1080:UA_NAKOW25ER:jupTDNp7
185.88.36.87:1080:UA_NAKOW25ER:jupTDNp7
79.110.28.105:1080:UA_NAKOW25ER:jupTDNp7
146.185.200.42:1080:UA_NAKOW25ER:jupTDNp7
46.161.63.68:1080:UA_NAKOW25ER:jupTDNp7
185.88.36.236:1080:UA_NAKOW25ER:jupTDNp7
46.161.62.226:1080:UA_NAKOW25ER:jupTDNp7
46.161.63.99:1080:UA_NAKOW25ER:jupTDNp7
185.88.36.53:1080:UA_NAKOW25ER:jupTDNp7
146.185.200.18:1080:UA_NAKOW25ER:jupTDNp7
146.185.200.211:1080:UA_NAKOW25ER:jupTDNp7
46.161.63.237:1080:UA_NAKOW25ER:jupTDNp7
79.110.28.180:1080:UA_NAKOW25ER:jupTDNp7
185.88.36.71:1080:UA_NAKOW25ER:jupTDNp7
79.110.28.14:1080:UA_NAKOW25ER:jupTDNp7
46.161.63.97:1080:UA_NAKOW25ER:jupTDNp7
46.161.63.200:1080:UA_NAKOW25ER:jupTDNp7
46.161.63.227:1080:UA_NAKOW25ER:jupTDNp7
146.185.200.251:1080:UA_NAKOW25ER:jupTDNp7
185.88.36.242:1080:UA_NAKOW25ER:jupTDNp7
79.110.28.24:1080:UA_NAKOW25ER:jupTDNp7
46.161.63.129:1080:UA_NAKOW25ER:jupTDNp7
79.110.28.211:1080:UA_NAKOW25ER:jupTDNp7
46.161.63.203:1080:UA_NAKOW25ER:jupTDNp7
46.161.63.172:1080:UA_NAKOW25ER:jupTDNp7
185.88.36.110:1080:UA_NAKOW25ER:jupTDNp7
185.88.36.250:1080:UA_NAKOW25ER:jupTDNp7
146.185.200.221:1080:UA_NAKOW25ER:jupTDNp7
146.185.200.77:1080:UA_NAKOW25ER:jupTDNp7
185.88.36.22:1080:UA_NAKOW25ER:jupTDNp7
79.110.28.178:1080:UA_NAKOW25ER:jupTDNp7
46.161.62.241:1080:UA_NAKOW25ER:jupTDNp7
185.88.36.34:1080:UA_NAKOW25ER:jupTDNp7
46.161.63.12:1080:UA_NAKOW25ER:jupTDNp7
79.110.28.232:1080:UA_NAKOW25ER:jupTDNp7
146.185.200.192:1080:UA_NAKOW25ER:jupTDNp7
46.161.63.90:1080:UA_NAKOW25ER:jupTDNp7
185.88.36.116:1080:UA_NAKOW25ER:jupTDNp7
185.88.36.102:1080:UA_NAKOW25ER:jupTDNp7
46.161.63.16:1080:UA_NAKOW25ER:jupTDNp7
185.88.36.217:1080:UA_NAKOW25ER:jupTDNp7
46.161.62.235:1080:UA_NAKOW25ER:jupTDNp7
146.185.200.140:1080:UA_NAKOW25ER:jupTDNp7
46.161.63.149:1080:UA_NAKOW25ER:jupTDNp7
46.161.63.70:1080:UA_NAKOW25ER:jupTDNp7
46.161.63.213:1080:UA_NAKOW25ER:jupTDNp7
46.161.63.79:1080:UA_NAKOW25ER:jupTDNp7
146.185.200.225:1080:UA_NAKOW25ER:jupTDNp7
185.88.36.88:1080:UA_NAKOW25ER:jupTDNp7
185.88.36.205:1080:UA_NAKOW25ER:jupTDNp7
146.185.200.82:1080:UA_NAKOW25ER:jupTDNp7
185.88.36.147:1080:UA_NAKOW25ER:jupTDNp7
185.88.36.74:1080:UA_NAKOW25ER:jupTDNp7
185.88.36.128:1080:UA_NAKOW25ER:jupTDNp7
146.185.200.249:1080:UA_NAKOW25ER:jupTDNp7
79.110.28.236:1080:UA_NAKOW25ER:jupTDNp7
79.110.28.15:1080:UA_NAKOW25ER:jupTDNp7
46.161.63.218:1080:UA_NAKOW25ER:jupTDNp7
46.161.63.17:1080:UA_NAKOW25ER:jupTDNp7
79.110.28.65:1080:UA_NAKOW25ER:jupTDNp7
79.110.28.152:1080:UA_NAKOW25ER:jupTDNp7
146.185.200.189:1080:UA_NAKOW25ER:jupTDNp7
146.185.200.239:1080:UA_NAKOW25ER:jupTDNp7
46.161.63.112:1080:UA_NAKOW25ER:jupTDNp7
46.161.62.229:1080:UA_NAKOW25ER:jupTDNp7
146.185.200.232:1080:UA_NAKOW25ER:jupTDNp7
185.88.36.60:1080:UA_NAKOW25ER:jupTDNp7
146.185.200.81:1080:UA_NAKOW25ER:jupTDNp7
46.161.63.42:1080:UA_NAKOW25ER:jupTDNp7
146.185.200.201:1080:UA_NAKOW25ER:jupTDNp7
79.110.28.81:1080:UA_NAKOW25ER:jupTDNp7
146.185.200.149:1080:UA_NAKOW25ER:jupTDNp7
185.88.36.238:1080:UA_NAKOW25ER:jupTDNp7
146.185.200.27:1080:UA_NAKOW25ER:jupTDNp7
185.88.36.113:1080:UA_NAKOW25ER:jupTDNp7
79.110.28.94:1080:UA_NAKOW25ER:jupTDNp7
46.161.63.205:1080:UA_NAKOW25ER:jupTDNp7
46.161.63.224:1080:UA_NAKOW25ER:jupTDNp7
79.110.28.147:1080:UA_NAKOW25ER:jupTDNp7
146.185.200.188:1080:UA_NAKOW25ER:jupTDNp7
79.110.28.51:1080:UA_NAKOW25ER:jupTDNp7
46.161.63.13:1080:UA_NAKOW25ER:jupTDNp7
185.88.36.224:1080:UA_NAKOW25ER:jupTDNp7
185.88.36.168:1080:UA_NAKOW25ER:jupTDNp7
79.110.28.177:1080:UA_NAKOW25ER:jupTDNp7
185.88.36.57:1080:UA_NAKOW25ER:jupTDNp7
146.185.200.127:1080:UA_NAKOW25ER:jupTDNp7
146.185.200.47:1080:UA_NAKOW25ER:jupTDNp7
79.110.28.63:1080:UA_NAKOW25ER:jupTDNp7
146.185.200.243:1080:UA_NAKOW25ER:jupTDNp7
46.161.63.121:1080:UA_NAKOW25ER:jupTDNp7
185.88.36.95:1080:UA_NAKOW25ER:jupTDNp7
146.185.200.179:1080:UA_NAKOW25ER:jupTDNp7
79.110.28.235:1080:UA_NAKOW25ER:jupTDNp7
79.110.28.111:1080:UA_NAKOW25ER:jupTDNp7
146.185.200.180:1080:UA_NAKOW25ER:jupTDNp7
46.161.63.93:1080:UA_NAKOW25ER:jupTDNp7
146.185.200.214:1080:UA_NAKOW25ER:jupTDNp7
46.161.63.211:1080:UA_NAKOW25ER:jupTDNp7
146.185.200.12:1080:UA_NAKOW25ER:jupTDNp7
79.110.28.85:1080:UA_NAKOW25ER:jupTDNp7
185.88.36.103:1080:UA_NAKOW25ER:jupTDNp7
46.161.62.210:1080:UA_NAKOW25ER:jupTDNp7