23.254.35.110:65432
104.144.130.130:65432
23.254.44.99:65432
23.254.41.139:65432
104.144.118.62:65432
23.254.60.56:65432
23.254.61.112:65432
192.198.97.224:65432
107.152.156.84:65432
23.236.198.103:65432
45.57.167.49:65432
104.144.11.12:65432
23.254.10.20:65432
23.236.202.12:65432
23.254.44.199:65432
104.144.131.151:65432
107.152.167.193:65432
69.58.8.190:65432
45.57.164.37:65432
104.144.246.191:65432
23.254.60.84:65432
23.250.60.249:65432
104.144.118.196:65432
104.144.246.181:65432
45.57.164.168:65432
104.144.134.113:65432
23.250.68.37:65432
104.144.188.11:65432
69.58.8.150:65432
104.144.24.186:65432
104.227.190.72:65432
23.250.63.246:65432
107.152.227.220:65432
104.144.131.137:65432
23.250.68.248:65432
104.227.190.31:65432
107.152.168.224:65432
104.144.134.60:65432
23.254.19.132:65432
104.227.8.24:65432
45.72.58.101:65432
23.250.62.142:65432
107.152.227.130:65432
138.128.62.247:65432
104.227.69.183:65432
69.58.11.196:65432
104.144.189.216:65432
23.236.198.33:65432
104.144.11.245:65432
45.57.164.103:65432
104.144.118.130:65432
192.157.55.98:65432
104.144.134.115:65432
23.254.5.229:65432
138.128.71.235:65432
104.227.77.10:65432
104.144.188.88:65432
104.227.77.47:65432
104.144.24.152:65432
23.254.44.171:65432
104.144.212.93:65432
104.144.11.181:65432
104.144.130.254:65432
23.254.35.194:65432
104.144.24.235:65432
138.128.49.70:65432
104.227.190.60:65432
104.144.212.124:65432
45.57.167.209:65432
104.144.49.155:65432
104.144.48.102:65432
107.152.156.82:65432
107.152.227.140:65432
104.144.236.135:65432
23.254.19.253:65432
23.254.40.177:65432
45.57.167.168:65432
104.227.8.236:65432
23.250.86.206:65432
23.254.5.157:65432
23.254.60.130:65432
23.254.5.189:65432
23.236.157.223:65432
104.227.8.19:65432
23.250.86.247:65432
138.128.57.70:65432
104.227.38.68:65432
23.254.19.14:65432
192.157.49.32:65432
104.144.188.116:65432
23.236.198.153:65432
138.128.49.127:65432
23.254.19.172:65432
104.144.134.251:65432
104.144.48.64:65432
104.144.188.104:65432
23.254.5.135:65432
104.227.77.42:65432
23.250.63.231:65432
104.144.48.109:65432
23.254.19.245:65432
107.152.227.79:65432
23.254.40.210:65432
104.144.134.74:65432
45.72.76.127:65432
138.128.71.218:65432
23.250.62.254:65432
104.144.143.91:65432
23.236.202.216:65432
172.245.164.57:65432
104.144.218.95:65432
104.144.45.79:65432
23.250.68.198:65432
69.58.11.226:65432
104.144.24.191:65432
104.144.48.103:65432
104.144.80.209:65432
45.72.58.29:65432
104.144.135.76:65432
104.144.189.3:65432